Curso: De las APIs a los gráficos: explorando datos sociales con R - Práctica 2: Paquetes de consulta
…
Con esto vemos lo que hay disponible y podemos pedir los datos

weo <- imf_get(dataflow_id = "WEO")

imf_get_codelists(
    c("INDICATOR"),
    dataflow_id = "WEO"  
  )

# A tibble: 145 × 7
   dimension_id code      name           description codelist_id codelist_agency
   <chr>        <chr>     <chr>          <chr>       <chr>       <chr>          
 1 INDICATOR    LUR       Unemployment … The percen… CL_WEO_IND… IMF.RES        
 2 INDICATOR    PCOALSA   Coal, South A… Coal, Sout… CL_WEO_IND… IMF.RES        
 3 INDICATOR    DSP       External debt… Total exte… CL_WEO_IND… IMF.RES        
 4 INDICATOR    DSI       External debt… Total exte… CL_WEO_IND… IMF.RES        
 5 INDICATOR    DSP_NGDPD External debt… Total exte… CL_WEO_IND… IMF.RES        
 6 INDICATOR    BX        Exports of go… The export… CL_WEO_IND… IMF.RES        
 7 INDICATOR    BM        Imports of go… Total curr… CL_WEO_IND… IMF.RES        
 8 INDICATOR    DS        External debt… Total exte… CL_WEO_IND… IMF.RES        
 9 INDICATOR    TTPCH     Terms of trad… The percen… CL_WEO_IND… IMF.RES        
10 INDICATOR    DSI_NGDPD External debt… Total exte… CL_WEO_IND… IMF.RES        
# ℹ 135 more rows
# ℹ 1 more variable: codelist_version <chr>
…
