Curso: De las APIs a los gráficos: explorando datos sociales con R - 1 Práctica 4: Tablascon {kable} y {gt}”
…
wdi_1980 <- WDI::WDI(
  country   = paises_iso3,
  indicator = c(pop_total = "SP.POP.TOTL",
    pib_pc_usd = "NY.GDP.PCAP.CD"), 
  start = 1980) %>%
  as_tibble() %>%
  mutate(
    iso2c = countrycode::countrycode(iso3c, "iso3c", "iso2c")
  ) %>%
  select(iso2c, iso3c, country, year, pop_total, pib_pc_usd)

wdi_1980

# A tibble: 225 × 6
   iso2c iso3c country  year pop_total pib_pc_usd
   <chr> <chr> <chr>   <int>     <dbl>      <dbl>
 1 BR    BRA   Brazil   1980 121207461      1959.
 2 BR    BRA   Brazil   1981 124063109      2080.
 3 BR    BRA   Brazil   1982 126923155      2138.
 4 BR    BRA   Brazil   1983 129790077      1461.
 5 BR    BRA   Brazil   1984 132658864      1420.
 6 BR    BRA   Brazil   1985 135515595      1556.
 7 BR    BRA   Brazil   1986 138336370      1854.
 8 BR    BRA   Brazil   1987 141104944      2006.
 9 BR    BRA   Brazil   1988 143826357      2141.
10 BR    BRA   Brazil   1989 146502972      2819.
# ℹ 215 more rows
…
1.7.2 Unir WDI + FMI (tabla final)

tabla <- wdi_1980 %>%
  dplyr::left_join(weo_gdp) # ojo

Joining with `by = join_by(iso3c, year)`

tabla

# A tibble: 225 × 7
   iso2c iso3c country  year pop_total pib_pc_usd gdp_real_growth
   <chr> <chr> <chr>   <int>     <dbl>      <dbl>           <dbl>
 1 BR    BRA   Brazil   1980 121207461      1959.           9.19 
 2 BR    BRA   Brazil   1981 124063109      2080.          -4.4  
 3 BR    BRA   Brazil   1982 126923155      2138.           0.596
 4 BR    BRA   Brazil   1983 129790077      1461.          -3.4  
 5 BR    BRA   Brazil   1984 132658864      1420.           5.31 
 6 BR    BRA   Brazil   1985 135515595      1556.           7.90 
 7 BR    BRA   Brazil   1986 138336370      1854.           7.54 
 8 BR    BRA   Brazil   1987 141104944      2006.           3.60 
 9 BR    BRA   Brazil   1988 143826357      2141.           0.264
10 BR    BRA   Brazil   1989 146502972      2819.           3.2  
# ℹ 215 more rows
…
